INFO: 2022/05/11 13:16:14 resources.go:80: config initialized success
INFO: 2022/05/11 13:18:50 resources.go:80: config initialized success
INFO: 2022/05/11 13:20:20 resources.go:80: config initialized success
INFO: 2022/05/11 13:49:04 resources.go:80: config initialized success
INFO: 2022/05/11 13:50:27 resources.go:80: config initialized success
INFO: 2022/05/11 13:51:46 resources.go:80: config initialized success
INFO: 2022/05/11 13:54:25 resources.go:80: config initialized success
INFO: 2022/05/11 15:14:08 resources.go:80: config initialized success
INFO: 2022/05/11 15:21:12 resources.go:80: config initialized success
INFO: 2022/05/11 15:59:29 resources.go:80: config initialized success
INFO: 2022/05/11 16:03:29 resources.go:80: config initialized success
INFO: 2022/05/11 16:06:06 resources.go:80: config initialized success
INFO: 2022/05/11 16:08:41 resources.go:80: config initialized success
INFO: 2022/05/11 16:16:13 resources.go:80: config initialized success
INFO: 2022/05/11 16:23:20 resources.go:80: config initialized success
INFO: 2022/05/11 16:26:17 resources.go:80: config initialized success
INFO: 2022/05/11 16:28:24 resources.go:80: config initialized success
INFO: 2022/05/11 16:32:32 resources.go:80: config initialized success
INFO: 2022/05/12 10:00:57 resources.go:80: config initialized success
INFO: 2022/05/12 10:02:59 resources.go:80: config initialized success
INFO: 2022/05/12 10:08:57 resources.go:80: config initialized success
INFO: 2022/05/12 11:02:25 resources.go:80: config initialized success
INFO: 2022/05/12 11:07:22 resources.go:80: config initialized success
INFO: 2022/05/12 11:12:21 resources.go:80: config initialized success
INFO: 2022/05/12 13:28:14 resources.go:80: config initialized success
INFO: 2022/05/12 13:29:24 resources.go:80: config initialized success
INFO: 2022/05/12 13:38:52 resources.go:80: config initialized success
INFO: 2022/05/12 13:39:55 resources.go:80: config initialized success
INFO: 2022/05/12 13:41:13 resources.go:80: config initialized success
INFO: 2022/05/12 13:44:03 resources.go:80: config initialized success
INFO: 2022/05/12 13:47:00 resources.go:80: config initialized success
INFO: 2022/05/12 13:47:49 resources.go:80: config initialized success
INFO: 2022/05/12 13:50:49 resources.go:80: config initialized success
INFO: 2022/05/12 13:51:54 resources.go:80: config initialized success
INFO: 2022/05/12 15:03:04 resources.go:80: config initialized success
INFO: 2022/05/12 15:07:01 resources.go:80: config initialized success
INFO: 2022/05/12 15:07:51 resources.go:80: config initialized success
INFO: 2022/05/12 15:09:26 resources.go:80: config initialized success
INFO: 2022/05/12 15:14:14 resources.go:80: config initialized success
INFO: 2022/05/12 15:17:03 resources.go:80: config initialized success
INFO: 2022/05/12 15:19:31 resources.go:80: config initialized success
INFO: 2022/05/12 15:22:26 resources.go:80: config initialized success
INFO: 2022/05/12 15:50:49 resources.go:80: config initialized success
INFO: 2022/05/12 15:53:13 resources.go:80: config initialized success
INFO: 2022/05/12 15:53:46 resources.go:80: config initialized success
INFO: 2022/05/12 16:42:14 resources.go:80: config initialized success
INFO: 2022/05/12 16:43:03 resources.go:80: config initialized success
INFO: 2022/05/12 17:03:31 resources.go:80: config initialized success
INFO: 2022/05/12 17:04:04 resources.go:80: config initialized success
INFO: 2022/05/12 17:05:31 resources.go:80: config initialized success
INFO: 2022/05/12 17:09:13 resources.go:80: config initialized success
INFO: 2022/05/12 17:12:28 resources.go:80: config initialized success
INFO: 2022/05/12 17:15:07 resources.go:80: config initialized success
INFO: 2022/05/12 17:32:01 resources.go:80: config initialized success
INFO: 2022/05/13 11:25:01 resources.go:80: config initialized success
INFO: 2022/05/13 11:28:31 resources.go:80: config initialized success
INFO: 2022/05/13 11:30:11 resources.go:80: config initialized success
INFO: 2022/05/13 11:31:21 resources.go:80: config initialized success
INFO: 2022/05/13 11:33:47 resources.go:80: config initialized success
INFO: 2022/05/13 11:35:03 resources.go:80: config initialized success
INFO: 2022/05/13 11:35:34 resources.go:80: config initialized success
INFO: 2022/05/13 11:36:55 resources.go:80: config initialized success
INFO: 2022/05/13 11:40:49 resources.go:80: config initialized success
INFO: 2022/05/13 11:46:01 resources.go:80: config initialized success
INFO: 2022/05/13 13:16:50 resources.go:80: config initialized success
INFO: 2022/05/13 13:22:26 resources.go:80: config initialized success
INFO: 2022/05/13 13:22:39 resources.go:80: config initialized success
INFO: 2022/05/13 13:25:19 resources.go:80: config initialized success
INFO: 2022/05/13 14:54:25 resources.go:80: config initialized success
INFO: 2022/05/13 14:56:26 resources.go:80: config initialized success
INFO: 2022/05/13 15:08:00 resources.go:80: config initialized success
INFO: 2022/05/13 15:09:43 resources.go:80: config initialized success
INFO: 2022/05/13 15:15:02 resources.go:80: config initialized success
INFO: 2022/05/13 15:18:35 resources.go:80: config initialized success
INFO: 2022/05/13 15:19:04 resources.go:80: config initialized success
INFO: 2022/05/13 15:21:13 resources.go:80: config initialized success
INFO: 2022/05/13 15:21:59 resources.go:80: config initialized success
INFO: 2022/05/13 15:23:26 resources.go:80: config initialized success
INFO: 2022/05/13 15:23:49 resources.go:80: config initialized success
INFO: 2022/05/13 15:31:20 resources.go:80: config initialized success
INFO: 2022/05/13 15:32:02 resources.go:80: config initialized success
INFO: 2022/05/13 15:37:53 resources.go:80: config initialized success
INFO: 2022/05/13 15:42:47 resources.go:80: config initialized success
INFO: 2022/05/13 15:43:58 resources.go:80: config initialized success
INFO: 2022/05/16 10:24:37 resources.go:80: config initialized success
INFO: 2022/05/16 10:25:33 resources.go:80: config initialized success
INFO: 2022/05/16 10:26:43 resources.go:80: config initialized success
INFO: 2022/05/16 10:46:30 resources.go:80: config initialized success
INFO: 2022/05/16 11:42:42 resources.go:80: config initialized success
INFO: 2022/05/16 11:43:39 resources.go:80: config initialized success
INFO: 2022/05/16 11:44:52 resources.go:80: config initialized success
INFO: 2022/05/16 11:47:32 resources.go:80: config initialized success
INFO: 2022/05/16 13:51:57 resources.go:80: config initialized success
INFO: 2022/05/16 13:55:11 resources.go:80: config initialized success
INFO: 2022/05/16 13:57:40 resources.go:80: config initialized success
INFO: 2022/05/16 13:59:57 resources.go:80: config initialized success
INFO: 2022/05/16 14:00:48 resources.go:80: config initialized success
INFO: 2022/05/16 14:02:13 resources.go:80: config initialized success
INFO: 2022/05/16 14:02:53 resources.go:80: config initialized success
INFO: 2022/05/16 14:03:23 resources.go:80: config initialized success
INFO: 2022/05/16 14:04:06 resources.go:80: config initialized success
INFO: 2022/05/16 14:05:06 resources.go:80: config initialized success
INFO: 2022/05/16 14:06:51 resources.go:80: config initialized success
INFO: 2022/05/16 14:07:22 resources.go:80: config initialized success
INFO: 2022/05/16 14:07:35 resources.go:80: config initialized success
INFO: 2022/05/16 14:08:24 resources.go:80: config initialized success
INFO: 2022/05/16 14:10:10 resources.go:80: config initialized success
INFO: 2022/05/16 14:12:47 resources.go:80: config initialized success
INFO: 2022/05/16 14:15:01 resources.go:80: config initialized success
INFO: 2022/05/16 14:17:27 resources.go:80: config initialized success
INFO: 2022/05/16 14:18:36 resources.go:80: config initialized success
INFO: 2022/05/16 14:19:48 resources.go:80: config initialized success
INFO: 2022/05/16 14:22:59 resources.go:80: config initialized success
INFO: 2022/05/16 14:26:47 resources.go:80: config initialized success
INFO: 2022/05/16 14:46:58 resources.go:80: config initialized success
INFO: 2022/05/16 14:48:18 resources.go:80: config initialized success
INFO: 2022/05/16 14:48:45 resources.go:80: config initialized success
INFO: 2022/05/16 14:51:49 resources.go:80: config initialized success
INFO: 2022/05/16 14:52:04 resources.go:80: config initialized success
INFO: 2022/05/16 14:58:15 resources.go:80: config initialized success
INFO: 2022/05/16 15:03:31 resources.go:80: config initialized success
INFO: 2022/05/16 15:10:30 resources.go:80: config initialized success
INFO: 2022/05/16 15:27:39 resources.go:80: config initialized success
INFO: 2022/05/16 15:37:20 resources.go:80: config initialized success
INFO: 2022/05/16 15:38:18 resources.go:80: config initialized success
INFO: 2022/05/16 15:39:48 resources.go:80: config initialized success
INFO: 2022/05/16 15:43:03 resources.go:80: config initialized success
INFO: 2022/05/16 15:44:35 resources.go:80: config initialized success
INFO: 2022/05/16 15:46:28 resources.go:80: config initialized success
INFO: 2022/05/16 15:53:02 resources.go:80: config initialized success
INFO: 2022/05/16 15:54:26 resources.go:80: config initialized success
INFO: 2022/05/16 15:55:30 resources.go:80: config initialized success
INFO: 2022/05/16 16:01:18 resources.go:80: config initialized success
INFO: 2022/05/16 16:02:35 resources.go:80: config initialized success
INFO: 2022/05/16 16:04:57 resources.go:80: config initialized success
INFO: 2022/05/16 16:05:43 resources.go:80: config initialized success
INFO: 2022/05/16 16:07:22 resources.go:80: config initialized success
INFO: 2022/05/16 16:08:41 resources.go:80: config initialized success
INFO: 2022/05/16 16:10:44 resources.go:80: config initialized success
INFO: 2022/05/16 16:16:03 resources.go:80: config initialized success
INFO: 2022/05/16 16:20:48 resources.go:80: config initialized success
INFO: 2022/05/16 16:26:21 resources.go:80: config initialized success
INFO: 2022/05/16 16:26:30 resources.go:80: config initialized success
INFO: 2022/05/16 16:30:49 resources.go:80: config initialized success
INFO: 2022/05/16 16:32:58 resources.go:80: config initialized success
INFO: 2022/05/16 16:44:09 resources.go:80: config initialized success
INFO: 2022/05/16 16:45:19 resources.go:80: config initialized success
INFO: 2022/05/16 16:49:21 resources.go:80: config initialized success
INFO: 2022/05/16 16:50:23 resources.go:80: config initialized success
INFO: 2022/05/16 17:07:23 resources.go:80: config initialized success
INFO: 2022/05/16 17:08:20 resources.go:80: config initialized success
INFO: 2022/05/16 17:19:49 resources.go:80: config initialized success
INFO: 2022/05/16 17:21:23 resources.go:80: config initialized success
INFO: 2022/05/16 17:23:23 resources.go:80: config initialized success
INFO: 2022/05/16 17:25:18 resources.go:80: config initialized success
INFO: 2022/05/16 17:26:24 resources.go:80: config initialized success
INFO: 2022/05/16 17:28:53 resources.go:80: config initialized success
INFO: 2022/05/16 17:29:52 resources.go:80: config initialized success
INFO: 2022/05/16 17:32:13 resources.go:80: config initialized success
INFO: 2022/05/16 17:33:43 resources.go:80: config initialized success
INFO: 2022/05/17 09:07:55 resources.go:80: config initialized success
INFO: 2022/05/17 09:08:23 resources.go:80: config initialized success
INFO: 2022/05/17 09:09:14 resources.go:80: config initialized success
INFO: 2022/05/17 09:11:08 resources.go:80: config initialized success
INFO: 2022/05/17 09:11:30 resources.go:80: config initialized success
INFO: 2022/05/17 09:14:17 resources.go:80: config initialized success
INFO: 2022/05/17 09:15:17 resources.go:80: config initialized success
INFO: 2022/05/17 09:16:42 resources.go:80: config initialized success
INFO: 2022/05/17 09:18:40 resources.go:80: config initialized success
INFO: 2022/05/17 09:21:11 resources.go:80: config initialized success
INFO: 2022/05/17 09:23:45 resources.go:80: config initialized success
INFO: 2022/05/17 09:23:52 resources.go:80: config initialized success
INFO: 2022/05/17 09:26:27 resources.go:80: config initialized success
INFO: 2022/05/17 09:31:41 resources.go:80: config initialized success
INFO: 2022/05/17 09:33:25 resources.go:80: config initialized success
INFO: 2022/05/17 09:35:30 resources.go:80: config initialized success
INFO: 2022/05/17 09:37:14 resources.go:80: config initialized success
INFO: 2022/05/17 09:39:21 resources.go:80: config initialized success
INFO: 2022/05/17 09:39:58 resources.go:80: config initialized success
INFO: 2022/05/17 09:43:13 resources.go:80: config initialized success
INFO: 2022/05/17 09:48:23 resources.go:80: config initialized success
INFO: 2022/05/17 09:51:14 resources.go:80: config initialized success
INFO: 2022/05/17 09:56:35 resources.go:80: config initialized success
INFO: 2022/05/17 09:59:53 resources.go:80: config initialized success
INFO: 2022/05/17 10:00:25 resources.go:80: config initialized success
INFO: 2022/05/17 10:06:12 resources.go:80: config initialized success
INFO: 2022/05/17 10:08:57 resources.go:80: config initialized success
INFO: 2022/05/17 10:36:55 resources.go:80: config initialized success
INFO: 2022/05/17 10:37:44 resources.go:80: config initialized success
INFO: 2022/05/17 10:38:08 resources.go:80: config initialized success
INFO: 2022/05/17 10:44:35 resources.go:80: config initialized success
INFO: 2022/05/17 10:48:01 resources.go:80: config initialized success
INFO: 2022/05/17 10:50:42 resources.go:80: config initialized success
INFO: 2022/05/17 10:51:17 resources.go:80: config initialized success
INFO: 2022/05/17 10:53:38 resources.go:80: config initialized success
INFO: 2022/05/17 11:01:26 resources.go:80: config initialized success
INFO: 2022/05/17 11:02:52 resources.go:80: config initialized success
INFO: 2022/05/17 11:05:00 resources.go:80: config initialized success
INFO: 2022/05/17 11:06:10 resources.go:80: config initialized success
INFO: 2022/05/17 11:09:08 resources.go:80: config initialized success
INFO: 2022/05/17 11:10:10 resources.go:80: config initialized success
INFO: 2022/05/17 11:14:15 resources.go:80: config initialized success
INFO: 2022/05/17 11:15:53 resources.go:80: config initialized success
INFO: 2022/05/17 11:16:57 resources.go:80: config initialized success
INFO: 2022/05/17 11:17:53 resources.go:80: config initialized success
INFO: 2022/05/17 11:21:53 resources.go:80: config initialized success
INFO: 2022/05/17 11:27:27 resources.go:80: config initialized success
INFO: 2022/05/17 11:28:35 resources.go:80: config initialized success
INFO: 2022/05/17 12:59:36 resources.go:80: config initialized success
INFO: 2022/05/17 13:00:37 resources.go:80: config initialized success
INFO: 2022/05/17 13:31:53 resources.go:80: config initialized success
INFO: 2022/05/17 13:50:57 resources.go:80: config initialized success
INFO: 2022/05/17 14:14:07 resources.go:80: config initialized success
INFO: 2022/05/17 14:18:16 resources.go:80: config initialized success
INFO: 2022/05/17 15:49:22 resources.go:80: config initialized success
INFO: 2022/05/18 09:12:34 resources.go:80: config initialized success
INFO: 2022/05/18 09:15:01 resources.go:80: config initialized success
INFO: 2022/05/18 11:16:58 resources.go:80: config initialized success
INFO: 2022/05/18 17:09:13 resources.go:80: config initialized success
INFO: 2022/05/18 17:11:36 resources.go:80: config initialized success
INFO: 2022/05/18 17:35:27 resources.go:80: config initialized success
INFO: 2022/05/18 17:36:28 resources.go:80: config initialized success
INFO: 2022/05/18 17:38:00 resources.go:80: config initialized success
INFO: 2022/05/18 17:41:22 resources.go:80: config initialized success
INFO: 2022/05/18 17:42:54 resources.go:80: config initialized success
INFO: 2022/05/18 17:57:23 resources.go:80: config initialized success
INFO: 2022/05/19 10:13:52 resources.go:80: config initialized success
INFO: 2022/05/19 10:14:11 resources.go:80: config initialized success
INFO: 2022/05/19 10:24:18 resources.go:80: config initialized success
INFO: 2022/05/20 14:15:37 resources.go:80: config initialized success
INFO: 2022/05/23 13:07:57 resources.go:80: config initialized success
INFO: 2022/05/23 13:10:25 resources.go:80: config initialized success
INFO: 2022/05/23 13:11:57 resources.go:80: config initialized success
INFO: 2022/05/23 14:02:43 resources.go:80: config initialized success
INFO: 2022/05/23 14:05:20 resources.go:80: config initialized success
INFO: 2022/05/23 14:18:42 resources.go:80: config initialized success
INFO: 2022/05/23 14:23:57 resources.go:80: config initialized success
INFO: 2022/05/23 14:25:23 resources.go:80: config initialized success
INFO: 2022/05/23 14:27:17 resources.go:80: config initialized success
INFO: 2022/05/23 14:32:54 resources.go:80: config initialized success
INFO: 2022/05/23 14:34:51 resources.go:80: config initialized success
INFO: 2022/05/23 14:36:25 resources.go:80: config initialized success
INFO: 2022/05/23 14:37:19 resources.go:80: config initialized success
INFO: 2022/05/23 14:41:55 resources.go:80: config initialized success
INFO: 2022/05/23 14:44:26 resources.go:80: config initialized success
INFO: 2022/05/23 14:48:46 resources.go:80: config initialized success
INFO: 2022/05/23 14:56:58 resources.go:80: config initialized success
INFO: 2022/05/23 14:59:02 resources.go:80: config initialized success
INFO: 2022/05/23 15:02:06 resources.go:80: config initialized success
INFO: 2022/05/23 15:04:06 resources.go:80: config initialized success
INFO: 2022/05/23 15:07:34 resources.go:80: config initialized success
INFO: 2022/05/23 15:09:01 resources.go:80: config initialized success
INFO: 2022/05/23 15:12:30 resources.go:80: config initialized success
INFO: 2022/05/23 15:13:53 resources.go:80: config initialized success
INFO: 2022/05/23 15:15:44 resources.go:80: config initialized success
INFO: 2022/05/23 15:17:40 resources.go:80: config initialized success
INFO: 2022/05/23 15:18:44 resources.go:80: config initialized success
INFO: 2022/05/23 15:22:58 resources.go:80: config initialized success
INFO: 2022/05/23 15:23:31 resources.go:80: config initialized success
INFO: 2022/05/23 15:23:52 resources.go:80: config initialized success
INFO: 2022/05/23 15:25:30 resources.go:80: config initialized success
INFO: 2022/05/23 15:53:38 resources.go:80: config initialized success
INFO: 2022/05/23 17:56:50 resources.go:80: config initialized success
INFO: 2022/05/23 17:59:07 resources.go:80: config initialized success
INFO: 2022/05/23 18:03:22 resources.go:80: config initialized success
INFO: 2022/05/23 18:04:58 resources.go:80: config initialized success
INFO: 2022/05/23 18:12:23 resources.go:80: config initialized success
INFO: 2022/05/23 18:19:50 resources.go:80: config initialized success
INFO: 2022/05/23 18:26:01 resources.go:80: config initialized success
INFO: 2022/05/24 09:08:34 resources.go:80: config initialized success
INFO: 2022/05/24 09:16:09 resources.go:80: config initialized success
INFO: 2022/05/24 09:22:08 resources.go:80: config initialized success
INFO: 2022/05/24 10:18:54 resources.go:80: config initialized success
INFO: 2022/05/24 10:22:08 resources.go:80: config initialized success
INFO: 2022/05/24 10:28:38 resources.go:80: config initialized success
INFO: 2022/05/24 10:30:31 resources.go:80: config initialized success
INFO: 2022/05/24 10:33:05 resources.go:80: config initialized success
INFO: 2022/05/24 10:35:34 resources.go:80: config initialized success
INFO: 2022/05/24 10:39:26 resources.go:80: config initialized success
INFO: 2022/05/24 10:41:32 resources.go:80: config initialized success
INFO: 2022/05/24 10:42:38 resources.go:80: config initialized success
INFO: 2022/05/24 10:46:33 resources.go:80: config initialized success
INFO: 2022/05/24 10:48:45 resources.go:80: config initialized success
INFO: 2022/05/24 10:50:42 resources.go:80: config initialized success
INFO: 2022/05/24 10:54:20 resources.go:80: config initialized success
INFO: 2022/05/24 10:57:18 resources.go:80: config initialized success
INFO: 2022/05/24 11:12:35 resources.go:80: config initialized success
INFO: 2022/05/24 11:15:05 resources.go:80: config initialized success
INFO: 2022/05/24 11:18:02 resources.go:80: config initialized success
INFO: 2022/05/24 11:20:57 resources.go:80: config initialized success
INFO: 2022/05/24 11:37:15 resources.go:80: config initialized success
INFO: 2022/05/24 11:53:34 resources.go:80: config initialized success
INFO: 2022/05/24 13:11:14 resources.go:80: config initialized success
INFO: 2022/05/24 13:13:13 resources.go:80: config initialized success
INFO: 2022/05/24 13:30:32 resources.go:80: config initialized success
INFO: 2022/05/24 13:33:04 resources.go:80: config initialized success
INFO: 2022/05/24 13:36:16 resources.go:80: config initialized success
INFO: 2022/05/24 13:37:14 resources.go:80: config initialized success
INFO: 2022/05/24 13:41:19 resources.go:80: config initialized success
INFO: 2022/05/24 13:43:27 resources.go:80: config initialized success
INFO: 2022/05/24 13:44:16 resources.go:80: config initialized success
INFO: 2022/05/24 13:47:40 resources.go:80: config initialized success
INFO: 2022/05/24 13:49:01 resources.go:80: config initialized success
INFO: 2022/05/24 13:49:21 resources.go:80: config initialized success
INFO: 2022/05/24 13:54:36 resources.go:80: config initialized success
INFO: 2022/05/24 14:00:35 resources.go:80: config initialized success
INFO: 2022/05/24 14:03:19 resources.go:80: config initialized success
INFO: 2022/05/24 14:09:37 resources.go:80: config initialized success
INFO: 2022/05/24 14:10:44 resources.go:80: config initialized success
INFO: 2022/05/24 14:21:13 resources.go:80: config initialized success
INFO: 2022/05/24 14:33:39 resources.go:80: config initialized success
INFO: 2022/05/24 14:36:08 resources.go:80: config initialized success
INFO: 2022/05/24 14:38:31 resources.go:80: config initialized success
INFO: 2022/05/24 14:39:50 resources.go:80: config initialized success
INFO: 2022/05/24 15:05:38 resources.go:80: config initialized success
INFO: 2022/05/24 15:08:27 resources.go:80: config initialized success
INFO: 2022/05/24 15:12:42 resources.go:80: config initialized success
INFO: 2022/05/24 15:16:01 resources.go:80: config initialized success
INFO: 2022/05/24 15:30:57 resources.go:80: config initialized success
INFO: 2022/05/24 15:43:57 resources.go:80: config initialized success
INFO: 2022/05/24 15:45:21 resources.go:80: config initialized success
INFO: 2022/05/24 15:49:48 resources.go:80: config initialized success
INFO: 2022/05/24 16:21:31 resources.go:80: config initialized success
INFO: 2022/05/24 16:22:01 resources.go:80: config initialized success
INFO: 2022/05/24 16:25:20 resources.go:80: config initialized success
INFO: 2022/05/24 16:30:50 resources.go:80: config initialized success
INFO: 2022/05/24 16:33:17 resources.go:80: config initialized success
INFO: 2022/05/24 16:33:28 resources.go:80: config initialized success
INFO: 2022/05/24 16:34:06 resources.go:80: config initialized success
INFO: 2022/05/24 16:35:27 resources.go:80: config initialized success
INFO: 2022/05/24 16:39:05 resources.go:80: config initialized success
INFO: 2022/05/24 16:41:08 resources.go:80: config initialized success
INFO: 2022/05/24 16:44:14 resources.go:80: config initialized success
INFO: 2022/05/24 16:46:22 resources.go:80: config initialized success
INFO: 2022/05/24 16:49:26 resources.go:80: config initialized success
INFO: 2022/05/24 16:50:28 resources.go:80: config initialized success
INFO: 2022/05/24 16:53:08 resources.go:80: config initialized success
INFO: 2022/05/24 16:55:42 resources.go:80: config initialized success
INFO: 2022/05/24 16:58:57 resources.go:80: config initialized success
INFO: 2022/05/24 17:02:34 resources.go:80: config initialized success
INFO: 2022/05/24 17:03:19 resources.go:80: config initialized success
INFO: 2022/05/24 17:21:57 resources.go:80: config initialized success
INFO: 2022/05/24 17:48:36 resources.go:80: config initialized success
INFO: 2022/05/24 18:10:41 resources.go:80: config initialized success
INFO: 2022/05/25 09:20:02 resources.go:80: config initialized success
INFO: 2022/05/25 09:21:22 resources.go:80: config initialized success
INFO: 2022/05/25 10:29:02 resources.go:80: config initialized success
INFO: 2022/05/25 10:30:27 resources.go:80: config initialized success
INFO: 2022/05/25 10:31:46 resources.go:80: config initialized success
INFO: 2022/05/25 10:32:49 resources.go:80: config initialized success
INFO: 2022/05/25 10:34:12 resources.go:80: config initialized success
INFO: 2022/05/25 10:39:16 resources.go:80: config initialized success
INFO: 2022/05/25 10:40:05 resources.go:80: config initialized success
INFO: 2022/05/25 10:41:39 resources.go:80: config initialized success
INFO: 2022/05/25 10:42:28 resources.go:80: config initialized success
INFO: 2022/05/25 10:43:09 resources.go:80: config initialized success
INFO: 2022/05/25 10:46:50 resources.go:80: config initialized success
INFO: 2022/05/25 10:52:02 resources.go:80: config initialized success
INFO: 2022/05/25 10:55:32 resources.go:80: config initialized success
INFO: 2022/05/25 11:01:17 resources.go:80: config initialized success
INFO: 2022/05/25 11:16:25 resources.go:80: config initialized success
INFO: 2022/05/25 11:18:53 resources.go:80: config initialized success
INFO: 2022/05/25 11:39:24 resources.go:80: config initialized success
INFO: 2022/05/25 11:41:55 resources.go:80: config initialized success
INFO: 2022/05/25 11:44:53 resources.go:80: config initialized success
INFO: 2022/05/25 11:58:36 resources.go:80: config initialized success
INFO: 2022/05/25 12:00:08 resources.go:80: config initialized success
INFO: 2022/05/25 12:01:00 resources.go:80: config initialized success
INFO: 2022/05/25 12:04:15 resources.go:80: config initialized success
INFO: 2022/05/25 12:05:45 resources.go:80: config initialized success
INFO: 2022/05/25 12:06:33 resources.go:80: config initialized success
INFO: 2022/05/25 12:08:01 resources.go:80: config initialized success
INFO: 2022/05/25 12:09:31 resources.go:80: config initialized success
INFO: 2022/05/25 12:51:54 resources.go:80: config initialized success
INFO: 2022/05/25 12:55:50 resources.go:80: config initialized success
INFO: 2022/05/25 13:00:48 resources.go:80: config initialized success
INFO: 2022/05/25 13:05:16 resources.go:80: config initialized success
INFO: 2022/05/25 13:06:56 resources.go:80: config initialized success
INFO: 2022/05/25 13:08:17 resources.go:80: config initialized success
INFO: 2022/05/25 13:09:26 resources.go:80: config initialized success
INFO: 2022/05/25 13:11:01 resources.go:80: config initialized success
INFO: 2022/05/25 13:13:30 resources.go:80: config initialized success
INFO: 2022/05/25 13:16:07 resources.go:80: config initialized success
INFO: 2022/05/25 13:18:25 resources.go:80: config initialized success
INFO: 2022/05/25 13:20:31 resources.go:80: config initialized success
INFO: 2022/05/25 13:21:26 resources.go:80: config initialized success
INFO: 2022/05/25 13:23:50 resources.go:80: config initialized success
INFO: 2022/05/25 13:25:03 resources.go:80: config initialized success
INFO: 2022/05/25 13:27:16 resources.go:80: config initialized success
INFO: 2022/05/25 13:36:31 resources.go:80: config initialized success
INFO: 2022/05/25 13:38:44 resources.go:80: config initialized success
INFO: 2022/05/25 13:39:31 resources.go:80: config initialized success
INFO: 2022/05/25 13:43:22 resources.go:80: config initialized success
INFO: 2022/05/25 14:49:07 resources.go:80: config initialized success
INFO: 2022/05/25 14:51:58 resources.go:80: config initialized success
INFO: 2022/05/25 15:01:46 resources.go:80: config initialized success
INFO: 2022/05/25 15:04:18 resources.go:80: config initialized success
INFO: 2022/05/25 15:06:55 resources.go:80: config initialized success
INFO: 2022/05/25 15:36:22 resources.go:80: config initialized success
INFO: 2022/05/25 15:37:23 resources.go:80: config initialized success
INFO: 2022/05/25 15:39:52 resources.go:80: config initialized success
INFO: 2022/05/25 15:49:49 resources.go:80: config initialized success
INFO: 2022/05/25 17:27:42 resources.go:80: config initialized success
INFO: 2022/05/25 17:31:14 resources.go:80: config initialized success
INFO: 2022/05/25 17:36:22 resources.go:80: config initialized success
INFO: 2022/05/25 17:41:33 resources.go:80: config initialized success
INFO: 2022/05/25 17:41:42 resources.go:80: config initialized success
INFO: 2022/05/25 17:49:49 resources.go:80: config initialized success
INFO: 2022/05/25 17:50:32 resources.go:80: config initialized success
INFO: 2022/05/25 17:51:53 resources.go:80: config initialized success
INFO: 2022/05/25 18:00:59 resources.go:80: config initialized success
INFO: 2022/05/25 18:02:07 resources.go:80: config initialized success
INFO: 2022/05/25 18:02:45 resources.go:80: config initialized success
INFO: 2022/05/25 18:08:48 resources.go:80: config initialized success
INFO: 2022/05/25 18:09:40 resources.go:80: config initialized success
INFO: 2022/05/25 18:12:31 resources.go:80: config initialized success
INFO: 2022/05/25 18:15:19 resources.go:80: config initialized success
INFO: 2022/05/26 09:01:25 resources.go:80: config initialized success
INFO: 2022/05/26 09:02:59 resources.go:80: config initialized success
INFO: 2022/05/26 09:04:54 resources.go:80: config initialized success
INFO: 2022/05/26 09:05:59 resources.go:80: config initialized success
INFO: 2022/05/26 09:10:34 resources.go:80: config initialized success
INFO: 2022/05/26 09:14:26 resources.go:80: config initialized success
INFO: 2022/05/26 09:17:55 resources.go:80: config initialized success
INFO: 2022/05/26 09:18:06 resources.go:80: config initialized success
INFO: 2022/05/26 09:19:07 resources.go:80: config initialized success
INFO: 2022/05/26 09:20:40 resources.go:80: config initialized success
INFO: 2022/05/26 09:24:20 resources.go:80: config initialized success
INFO: 2022/05/26 09:26:02 resources.go:80: config initialized success
INFO: 2022/05/26 09:28:13 resources.go:80: config initialized success
INFO: 2022/05/26 10:31:16 resources.go:80: config initialized success
INFO: 2022/05/26 10:35:26 resources.go:80: config initialized success
INFO: 2022/05/26 10:36:30 resources.go:80: config initialized success
INFO: 2022/05/26 10:37:18 resources.go:80: config initialized success
INFO: 2022/05/26 10:38:07 resources.go:80: config initialized success
INFO: 2022/05/26 10:39:13 resources.go:80: config initialized success
INFO: 2022/05/26 10:41:04 resources.go:80: config initialized success
INFO: 2022/05/26 10:41:46 resources.go:80: config initialized success
INFO: 2022/05/26 10:41:58 resources.go:80: config initialized success
INFO: 2022/05/26 10:55:55 resources.go:80: config initialized success
INFO: 2022/05/26 11:22:17 resources.go:80: config initialized success
INFO: 2022/05/26 12:44:11 resources.go:80: config initialized success
INFO: 2022/05/26 12:44:59 resources.go:80: config initialized success
INFO: 2022/05/26 12:56:25 resources.go:80: config initialized success
INFO: 2022/05/26 14:34:31 resources.go:80: config initialized success
INFO: 2022/05/26 14:39:24 resources.go:80: config initialized success
INFO: 2022/05/26 14:42:42 resources.go:80: config initialized success
INFO: 2022/05/26 14:46:09 resources.go:80: config initialized success
INFO: 2022/05/26 14:47:07 resources.go:80: config initialized success
INFO: 2022/05/26 15:45:38 resources.go:80: config initialized success
INFO: 2022/05/26 15:46:21 resources.go:80: config initialized success
INFO: 2022/05/26 16:05:57 resources.go:80: config initialized success
INFO: 2022/05/26 16:06:56 resources.go:80: config initialized success
INFO: 2022/05/26 16:07:07 resources.go:80: config initialized success
INFO: 2022/05/26 16:09:43 resources.go:80: config initialized success
INFO: 2022/05/26 16:11:12 resources.go:80: config initialized success
INFO: 2022/05/26 16:12:10 resources.go:80: config initialized success
INFO: 2022/05/26 16:12:45 resources.go:80: config initialized success
INFO: 2022/05/26 16:13:43 resources.go:80: config initialized success
INFO: 2022/05/26 16:14:28 resources.go:80: config initialized success
INFO: 2022/05/26 16:14:51 resources.go:80: config initialized success
INFO: 2022/05/26 16:15:47 resources.go:80: config initialized success
INFO: 2022/05/26 16:17:53 resources.go:80: config initialized success
INFO: 2022/05/26 16:30:18 resources.go:80: config initialized success
INFO: 2022/05/26 16:35:57 resources.go:80: config initialized success
INFO: 2022/05/26 16:37:07 resources.go:80: config initialized success
INFO: 2022/05/26 16:38:30 resources.go:80: config initialized success
INFO: 2022/05/26 16:40:41 resources.go:80: config initialized success
INFO: 2022/05/26 16:53:44 resources.go:80: config initialized success
INFO: 2022/05/26 16:58:57 resources.go:80: config initialized success
INFO: 2022/05/26 17:01:45 resources.go:80: config initialized success
INFO: 2022/05/26 17:58:02 resources.go:80: config initialized success
INFO: 2022/05/26 17:59:38 resources.go:80: config initialized success
INFO: 2022/05/26 18:03:42 resources.go:80: config initialized success
INFO: 2022/05/27 09:16:26 resources.go:80: config initialized success
INFO: 2022/05/27 09:39:43 resources.go:80: config initialized success
INFO: 2022/05/27 10:17:42 resources.go:80: config initialized success
INFO: 2022/05/27 10:18:47 resources.go:80: config initialized success
INFO: 2022/05/27 10:23:03 resources.go:80: config initialized success
INFO: 2022/05/27 10:27:52 resources.go:80: config initialized success
INFO: 2022/05/27 10:30:34 resources.go:80: config initialized success
INFO: 2022/05/27 10:31:31 resources.go:80: config initialized success
INFO: 2022/05/27 10:33:21 resources.go:80: config initialized success
INFO: 2022/05/27 10:33:50 resources.go:80: config initialized success
INFO: 2022/05/27 10:43:01 resources.go:80: config initialized success
INFO: 2022/05/27 10:43:47 resources.go:80: config initialized success
INFO: 2022/05/27 13:25:24 resources.go:80: config initialized success
INFO: 2022/05/27 13:25:56 resources.go:80: config initialized success
INFO: 2022/05/27 13:29:51 resources.go:80: config initialized success
INFO: 2022/05/27 13:31:04 resources.go:80: config initialized success
INFO: 2022/05/27 13:31:48 resources.go:80: config initialized success
INFO: 2022/05/27 13:32:24 resources.go:80: config initialized success
INFO: 2022/05/27 13:36:02 resources.go:80: config initialized success
INFO: 2022/05/27 13:37:11 resources.go:80: config initialized success
INFO: 2022/05/27 13:38:22 resources.go:80: config initialized success
INFO: 2022/05/27 13:39:51 resources.go:80: config initialized success
INFO: 2022/05/27 13:46:13 resources.go:80: config initialized success
INFO: 2022/05/27 13:58:57 resources.go:80: config initialized success
INFO: 2022/05/27 14:00:20 resources.go:80: config initialized success
INFO: 2022/05/27 14:01:46 resources.go:80: config initialized success
INFO: 2022/05/27 14:13:38 resources.go:80: config initialized success
INFO: 2022/05/27 15:05:08 resources.go:80: config initialized success
INFO: 2022/05/27 15:10:32 resources.go:80: config initialized success
INFO: 2022/05/27 15:11:09 resources.go:80: config initialized success
INFO: 2022/05/27 15:14:45 resources.go:80: config initialized success
INFO: 2022/05/27 15:18:25 resources.go:80: config initialized success
INFO: 2022/05/27 15:19:47 resources.go:80: config initialized success
INFO: 2022/05/27 15:44:12 resources.go:80: config initialized success
INFO: 2022/05/27 15:52:19 resources.go:80: config initialized success
INFO: 2022/05/27 15:53:55 resources.go:80: config initialized success
INFO: 2022/05/27 17:34:53 resources.go:80: config initialized success
INFO: 2022/05/27 17:35:43 resources.go:80: config initialized success
INFO: 2022/05/27 17:37:18 resources.go:80: config initialized success
INFO: 2022/05/27 17:38:58 resources.go:80: config initialized success
INFO: 2022/05/27 17:43:48 resources.go:80: config initialized success
INFO: 2022/05/27 17:49:26 resources.go:80: config initialized success
INFO: 2022/05/27 18:02:19 resources.go:80: config initialized success
INFO: 2022/05/27 18:03:24 resources.go:80: config initialized success
INFO: 2022/05/27 18:07:45 resources.go:80: config initialized success
INFO: 2022/05/27 18:15:47 resources.go:80: config initialized success
INFO: 2022/05/30 09:03:23 resources.go:80: config initialized success
INFO: 2022/05/30 09:07:03 resources.go:80: config initialized success
INFO: 2022/05/30 09:12:17 resources.go:80: config initialized success
INFO: 2022/05/30 09:13:55 resources.go:80: config initialized success
INFO: 2022/05/30 09:15:13 resources.go:80: config initialized success
INFO: 2022/05/30 09:19:10 resources.go:80: config initialized success
INFO: 2022/05/30 09:20:09 resources.go:80: config initialized success
INFO: 2022/05/30 09:23:19 resources.go:80: config initialized success
INFO: 2022/05/30 09:25:04 resources.go:80: config initialized success
INFO: 2022/05/30 09:27:07 resources.go:80: config initialized success
INFO: 2022/05/30 09:27:42 resources.go:80: config initialized success
INFO: 2022/05/30 09:28:36 resources.go:80: config initialized success
INFO: 2022/05/30 09:30:46 resources.go:80: config initialized success
INFO: 2022/05/30 09:34:51 resources.go:80: config initialized success
INFO: 2022/05/30 09:37:14 resources.go:80: config initialized success
INFO: 2022/05/30 09:39:34 resources.go:80: config initialized success
INFO: 2022/05/30 09:44:37 resources.go:80: config initialized success
INFO: 2022/05/30 09:52:00 resources.go:80: config initialized success
INFO: 2022/05/30 09:55:12 resources.go:80: config initialized success
INFO: 2022/05/30 10:27:58 resources.go:80: config initialized success
INFO: 2022/05/30 10:29:11 resources.go:80: config initialized success
INFO: 2022/05/30 10:31:40 resources.go:80: config initialized success
INFO: 2022/05/30 10:32:23 resources.go:80: config initialized success
INFO: 2022/05/30 10:34:05 resources.go:80: config initialized success
INFO: 2022/05/30 10:41:21 resources.go:80: config initialized success
INFO: 2022/05/30 10:47:28 resources.go:80: config initialized success
INFO: 2022/05/30 10:49:47 resources.go:80: config initialized success
INFO: 2022/05/30 10:52:50 resources.go:80: config initialized success
INFO: 2022/05/30 10:53:34 resources.go:80: config initialized success
INFO: 2022/05/30 10:59:07 resources.go:80: config initialized success
INFO: 2022/05/30 11:04:35 resources.go:80: config initialized success
INFO: 2022/05/30 11:07:52 resources.go:80: config initialized success
INFO: 2022/05/30 11:09:33 resources.go:80: config initialized success
INFO: 2022/05/30 11:13:30 resources.go:80: config initialized success
INFO: 2022/05/30 11:37:36 resources.go:80: config initialized success
INFO: 2022/05/30 11:38:45 resources.go:80: config initialized success
INFO: 2022/05/30 11:40:25 resources.go:80: config initialized success
INFO: 2022/05/30 11:41:27 resources.go:80: config initialized success
INFO: 2022/05/30 11:43:53 resources.go:80: config initialized success
INFO: 2022/05/30 13:10:36 resources.go:80: config initialized success
INFO: 2022/05/30 13:15:58 resources.go:80: config initialized success
INFO: 2022/05/30 13:18:57 resources.go:80: config initialized success
INFO: 2022/05/30 13:20:10 resources.go:80: config initialized success
INFO: 2022/05/30 13:21:18 resources.go:80: config initialized success
INFO: 2022/05/30 13:24:07 resources.go:80: config initialized success
INFO: 2022/05/30 13:26:36 resources.go:80: config initialized success
INFO: 2022/05/30 13:29:06 resources.go:80: config initialized success
INFO: 2022/05/30 13:35:31 resources.go:80: config initialized success
INFO: 2022/05/30 13:36:00 resources.go:80: config initialized success
INFO: 2022/05/30 13:47:21 resources.go:80: config initialized success
INFO: 2022/05/30 13:49:06 resources.go:80: config initialized success
INFO: 2022/05/30 13:51:38 resources.go:80: config initialized success
INFO: 2022/05/30 15:04:48 resources.go:80: config initialized success
INFO: 2022/05/30 15:08:08 resources.go:80: config initialized success
INFO: 2022/05/30 15:11:11 resources.go:80: config initialized success
INFO: 2022/05/30 15:15:03 resources.go:80: config initialized success
INFO: 2022/05/30 15:20:28 resources.go:80: config initialized success
INFO: 2022/05/30 15:26:51 resources.go:80: config initialized success
INFO: 2022/05/30 15:31:24 resources.go:80: config initialized success
INFO: 2022/05/30 15:32:47 resources.go:80: config initialized success
INFO: 2022/05/30 15:34:35 resources.go:80: config initialized success
INFO: 2022/05/30 15:38:33 resources.go:80: config initialized success
INFO: 2022/05/30 15:49:24 resources.go:80: config initialized success
INFO: 2022/05/30 15:49:34 resources.go:80: config initialized success
INFO: 2022/05/30 15:53:31 resources.go:80: config initialized success
INFO: 2022/05/30 15:56:29 resources.go:80: config initialized success
INFO: 2022/05/30 16:00:19 resources.go:80: config initialized success
INFO: 2022/05/30 16:06:51 resources.go:80: config initialized success
INFO: 2022/05/30 16:10:07 resources.go:80: config initialized success
INFO: 2022/05/30 16:19:36 resources.go:80: config initialized success
INFO: 2022/05/30 16:20:21 resources.go:80: config initialized success
INFO: 2022/05/30 16:21:03 resources.go:80: config initialized success
INFO: 2022/05/30 16:44:03 resources.go:80: config initialized success
INFO: 2022/05/30 16:47:51 resources.go:80: config initialized success
INFO: 2022/05/30 16:48:41 resources.go:80: config initialized success
INFO: 2022/05/30 16:54:47 resources.go:80: config initialized success
INFO: 2022/05/30 17:04:42 resources.go:80: config initialized success
INFO: 2022/05/30 17:10:46 resources.go:80: config initialized success
INFO: 2022/05/30 17:13:01 resources.go:80: config initialized success
INFO: 2022/05/30 17:21:39 resources.go:80: config initialized success
INFO: 2022/05/30 17:24:10 resources.go:80: config initialized success
INFO: 2022/05/30 17:31:55 resources.go:80: config initialized success
INFO: 2022/05/30 17:55:17 resources.go:80: config initialized success
INFO: 2022/05/30 17:55:49 resources.go:80: config initialized success
INFO: 2022/05/30 17:58:20 resources.go:80: config initialized success
INFO: 2022/05/31 09:27:22 resources.go:80: config initialized success
INFO: 2022/05/31 09:28:33 resources.go:80: config initialized success
INFO: 2022/05/31 09:30:05 resources.go:80: config initialized success
INFO: 2022/05/31 09:38:05 resources.go:80: config initialized success
INFO: 2022/05/31 10:05:02 resources.go:80: config initialized success
INFO: 2022/05/31 10:10:00 resources.go:80: config initialized success
INFO: 2022/05/31 10:21:32 resources.go:80: config initialized success
INFO: 2022/05/31 10:25:02 resources.go:80: config initialized success
INFO: 2022/05/31 10:29:32 resources.go:80: config initialized success
INFO: 2022/05/31 10:30:42 resources.go:80: config initialized success
INFO: 2022/05/31 10:32:50 resources.go:80: config initialized success
INFO: 2022/05/31 10:34:15 resources.go:80: config initialized success
INFO: 2022/05/31 10:35:53 resources.go:80: config initialized success
INFO: 2022/05/31 10:39:43 resources.go:80: config initialized success
INFO: 2022/05/31 11:00:25 resources.go:80: config initialized success
INFO: 2022/05/31 11:01:33 resources.go:80: config initialized success
INFO: 2022/05/31 11:48:15 resources.go:80: config initialized success
INFO: 2022/05/31 11:53:49 resources.go:80: config initialized success
INFO: 2022/05/31 11:56:27 resources.go:80: config initialized success
INFO: 2022/05/31 12:01:19 resources.go:80: config initialized success
INFO: 2022/05/31 12:03:04 resources.go:80: config initialized success
INFO: 2022/05/31 12:08:05 resources.go:80: config initialized success
INFO: 2022/05/31 12:11:55 resources.go:80: config initialized success
INFO: 2022/05/31 12:57:39 resources.go:80: config initialized success
INFO: 2022/05/31 13:01:55 resources.go:80: config initialized success
INFO: 2022/05/31 13:02:42 resources.go:80: config initialized success
INFO: 2022/05/31 13:03:43 resources.go:80: config initialized success
INFO: 2022/05/31 13:07:31 resources.go:80: config initialized success
INFO: 2022/05/31 13:09:48 resources.go:80: config initialized success
INFO: 2022/05/31 16:10:19 resources.go:80: config initialized success
INFO: 2022/05/31 16:15:10 resources.go:80: config initialized success
INFO: 2022/05/31 16:15:43 resources.go:80: config initialized success
INFO: 2022/05/31 16:42:58 resources.go:80: config initialized success
INFO: 2022/05/31 16:49:48 resources.go:80: config initialized success
INFO: 2022/05/31 16:53:37 resources.go:80: config initialized success
INFO: 2022/05/31 17:03:27 resources.go:80: config initialized success
INFO: 2022/05/31 17:05:49 resources.go:80: config initialized success
INFO: 2022/05/31 17:10:20 resources.go:80: config initialized success
INFO: 2022/05/31 17:32:11 resources.go:80: config initialized success
INFO: 2022/05/31 17:40:24 resources.go:80: config initialized success
INFO: 2022/05/31 17:46:39 resources.go:80: config initialized success
INFO: 2022/05/31 18:04:55 resources.go:80: config initialized success
INFO: 2022/05/31 18:07:47 resources.go:80: config initialized success
INFO: 2022/05/31 18:10:22 resources.go:80: config initialized success
INFO: 2022/05/31 18:38:53 resources.go:80: config initialized success
INFO: 2022/05/31 18:39:57 resources.go:80: config initialized success
INFO: 2022/06/02 09:02:09 resources.go:80: config initialized success
INFO: 2022/06/02 09:06:11 resources.go:80: config initialized success
INFO: 2022/06/02 09:10:26 resources.go:80: config initialized success
INFO: 2022/06/02 09:12:29 resources.go:80: config initialized success
INFO: 2022/06/02 09:14:32 resources.go:80: config initialized success
INFO: 2022/06/02 09:17:15 resources.go:80: config initialized success
INFO: 2022/06/02 09:19:32 resources.go:80: config initialized success
INFO: 2022/06/02 09:21:30 resources.go:80: config initialized success
INFO: 2022/06/02 09:24:01 resources.go:80: config initialized success
INFO: 2022/06/02 11:40:18 resources.go:80: config initialized success
INFO: 2022/06/02 11:43:05 resources.go:80: config initialized success
INFO: 2022/06/02 13:03:03 resources.go:80: config initialized success
INFO: 2022/06/02 13:05:16 resources.go:80: config initialized success
INFO: 2022/06/02 13:05:23 resources.go:80: config initialized success
INFO: 2022/06/02 13:06:39 resources.go:80: config initialized success
INFO: 2022/06/02 13:07:31 resources.go:80: config initialized success
INFO: 2022/06/02 13:08:13 resources.go:80: config initialized success
INFO: 2022/06/02 13:09:30 resources.go:80: config initialized success
INFO: 2022/06/02 13:10:12 resources.go:80: config initialized success
INFO: 2022/06/02 13:16:34 resources.go:80: config initialized success
INFO: 2022/06/02 13:17:50 resources.go:80: config initialized success
INFO: 2022/06/02 13:20:15 resources.go:80: config initialized success
INFO: 2022/06/02 13:23:47 resources.go:80: config initialized success
INFO: 2022/06/02 14:45:33 resources.go:80: config initialized success
INFO: 2022/06/02 14:45:47 resources.go:80: config initialized success
INFO: 2022/06/02 14:50:09 resources.go:80: config initialized success
INFO: 2022/06/02 14:53:30 resources.go:80: config initialized success
INFO: 2022/06/02 14:59:31 resources.go:80: config initialized success
INFO: 2022/06/02 15:32:31 resources.go:80: config initialized success
INFO: 2022/06/02 15:33:39 resources.go:80: config initialized success
INFO: 2022/06/02 15:44:48 resources.go:80: config initialized success
INFO: 2022/06/02 15:46:14 resources.go:80: config initialized success
INFO: 2022/06/02 15:47:51 resources.go:80: config initialized success
INFO: 2022/06/02 15:50:58 resources.go:80: config initialized success
INFO: 2022/06/02 15:51:42 resources.go:80: config initialized success
INFO: 2022/06/02 15:52:07 resources.go:80: config initialized success
INFO: 2022/06/02 15:54:27 resources.go:80: config initialized success
INFO: 2022/06/02 15:55:55 resources.go:80: config initialized success
INFO: 2022/06/02 16:26:44 resources.go:80: config initialized success
INFO: 2022/06/02 16:34:53 resources.go:80: config initialized success
INFO: 2022/06/02 16:52:59 resources.go:80: config initialized success
INFO: 2022/06/02 16:56:18 resources.go:80: config initialized success
INFO: 2022/06/02 17:14:45 resources.go:80: config initialized success
INFO: 2022/06/02 17:28:38 resources.go:80: config initialized success
INFO: 2022/06/02 17:29:38 resources.go:80: config initialized success
INFO: 2022/06/02 17:31:50 resources.go:80: config initialized success
INFO: 2022/06/02 17:52:57 resources.go:80: config initialized success
INFO: 2022/06/02 17:53:34 resources.go:80: config initialized success
INFO: 2022/06/02 17:56:06 resources.go:80: config initialized success
INFO: 2022/06/02 17:58:00 resources.go:80: config initialized success
INFO: 2022/06/02 18:21:18 resources.go:80: config initialized success
INFO: 2022/06/02 18:22:24 resources.go:80: config initialized success
INFO: 2022/06/03 12:59:15 resources.go:80: config initialized success
INFO: 2022/06/03 13:00:06 resources.go:80: config initialized success
INFO: 2022/06/03 13:00:37 resources.go:80: config initialized success
INFO: 2022/06/03 13:01:39 resources.go:80: config initialized success
INFO: 2022/06/03 13:06:29 resources.go:80: config initialized success
INFO: 2022/06/03 13:11:18 resources.go:80: config initialized success
INFO: 2022/06/03 13:17:19 resources.go:80: config initialized success
INFO: 2022/06/03 13:26:00 resources.go:80: config initialized success
INFO: 2022/06/03 13:44:42 resources.go:80: config initialized success
INFO: 2022/06/03 13:44:56 resources.go:80: config initialized success
INFO: 2022/06/03 13:46:35 resources.go:80: config initialized success
INFO: 2022/06/03 14:05:57 resources.go:80: config initialized success
INFO: 2022/06/03 14:15:43 resources.go:80: config initialized success
INFO: 2022/06/03 14:15:57 resources.go:80: config initialized success
INFO: 2022/06/03 14:16:34 resources.go:80: config initialized success
INFO: 2022/06/03 14:17:14 resources.go:80: config initialized success
INFO: 2022/06/03 14:22:20 resources.go:80: config initialized success
INFO: 2022/06/03 14:26:31 resources.go:80: config initialized success
INFO: 2022/06/03 15:08:52 resources.go:80: config initialized success
INFO: 2022/06/03 15:34:32 resources.go:80: config initialized success
INFO: 2022/06/03 15:42:31 resources.go:80: config initialized success
INFO: 2022/06/03 16:11:06 resources.go:80: config initialized success
INFO: 2022/06/03 16:17:56 resources.go:80: config initialized success
INFO: 2022/06/03 16:44:58 resources.go:80: config initialized success
INFO: 2022/06/03 16:45:59 resources.go:80: config initialized success
INFO: 2022/06/03 16:47:08 resources.go:80: config initialized success
INFO: 2022/06/03 17:03:23 resources.go:80: config initialized success
INFO: 2022/06/03 17:05:05 resources.go:80: config initialized success
INFO: 2022/06/03 17:06:51 resources.go:80: config initialized success
INFO: 2022/06/07 08:56:54 resources.go:80: config initialized success
INFO: 2022/06/07 09:05:08 resources.go:80: config initialized success
INFO: 2022/06/07 09:39:26 resources.go:80: config initialized success
INFO: 2022/06/07 09:51:11 resources.go:80: config initialized success
INFO: 2022/06/07 09:53:28 resources.go:80: config initialized success
INFO: 2022/06/07 09:55:29 resources.go:80: config initialized success
INFO: 2022/06/07 09:58:40 resources.go:80: config initialized success
INFO: 2022/06/07 10:00:47 resources.go:80: config initialized success
INFO: 2022/06/07 10:15:39 resources.go:80: config initialized success
INFO: 2022/06/07 10:17:34 resources.go:80: config initialized success
INFO: 2022/06/07 10:23:49 resources.go:80: config initialized success
INFO: 2022/06/07 10:24:26 resources.go:80: config initialized success
INFO: 2022/06/07 10:26:43 resources.go:80: config initialized success
INFO: 2022/06/07 10:47:52 resources.go:80: config initialized success
INFO: 2022/06/07 10:49:01 resources.go:80: config initialized success
INFO: 2022/06/07 10:51:20 resources.go:80: config initialized success
INFO: 2022/06/07 10:54:51 resources.go:80: config initialized success
INFO: 2022/06/07 10:57:42 resources.go:80: config initialized success
INFO: 2022/06/07 10:57:54 resources.go:80: config initialized success
INFO: 2022/06/07 10:58:22 resources.go:80: config initialized success
INFO: 2022/06/07 10:59:53 resources.go:80: config initialized success
INFO: 2022/06/07 11:54:39 resources.go:80: config initialized success
INFO: 2022/06/07 13:16:05 resources.go:80: config initialized success
INFO: 2022/06/07 13:16:21 resources.go:80: config initialized success
INFO: 2022/06/07 13:19:57 resources.go:80: config initialized success
INFO: 2022/06/07 13:21:21 resources.go:80: config initialized success
INFO: 2022/06/07 13:22:37 resources.go:80: config initialized success
INFO: 2022/06/07 13:34:29 resources.go:80: config initialized success
INFO: 2022/06/07 13:53:43 resources.go:80: config initialized success
INFO: 2022/06/07 13:55:44 resources.go:80: config initialized success
INFO: 2022/06/07 13:56:54 resources.go:80: config initialized success
INFO: 2022/06/07 14:02:28 resources.go:80: config initialized success
INFO: 2022/06/07 14:03:47 resources.go:80: config initialized success
INFO: 2022/06/07 14:04:14 resources.go:80: config initialized success
INFO: 2022/06/07 14:06:07 resources.go:80: config initialized success
INFO: 2022/06/07 14:07:52 resources.go:80: config initialized success
INFO: 2022/06/07 14:14:58 resources.go:80: config initialized success
INFO: 2022/06/07 14:20:47 resources.go:80: config initialized success
INFO: 2022/06/07 14:23:25 resources.go:80: config initialized success
INFO: 2022/06/07 14:32:07 resources.go:80: config initialized success
INFO: 2022/06/07 14:36:21 resources.go:80: config initialized success
INFO: 2022/06/07 14:37:15 resources.go:80: config initialized success
INFO: 2022/06/07 14:52:37 resources.go:80: config initialized success
INFO: 2022/06/07 14:53:47 resources.go:80: config initialized success
INFO: 2022/06/07 14:55:23 resources.go:80: config initialized success
INFO: 2022/06/07 14:56:34 resources.go:80: config initialized success
INFO: 2022/06/07 14:58:09 resources.go:80: config initialized success
INFO: 2022/06/07 15:01:29 resources.go:80: config initialized success
INFO: 2022/06/07 15:05:17 resources.go:80: config initialized success
INFO: 2022/06/07 15:08:43 resources.go:80: config initialized success
INFO: 2022/06/07 15:16:23 resources.go:80: config initialized success
INFO: 2022/06/07 15:17:47 resources.go:80: config initialized success
INFO: 2022/06/07 15:20:28 resources.go:80: config initialized success
INFO: 2022/06/07 15:21:06 resources.go:80: config initialized success
INFO: 2022/06/07 15:22:31 resources.go:80: config initialized success
INFO: 2022/06/07 15:29:10 resources.go:80: config initialized success
INFO: 2022/06/07 15:33:09 resources.go:80: config initialized success
INFO: 2022/06/07 15:36:26 resources.go:80: config initialized success
INFO: 2022/06/07 15:37:34 resources.go:80: config initialized success
INFO: 2022/06/07 15:54:34 resources.go:80: config initialized success
INFO: 2022/06/07 15:54:47 resources.go:80: config initialized success
INFO: 2022/06/07 15:56:04 resources.go:80: config initialized success
INFO: 2022/06/07 15:58:06 resources.go:80: config initialized success
INFO: 2022/06/07 16:04:31 resources.go:80: config initialized success
INFO: 2022/06/07 16:06:35 resources.go:80: config initialized success
INFO: 2022/06/07 16:07:49 resources.go:80: config initialized success
INFO: 2022/06/07 16:25:24 resources.go:80: config initialized success
INFO: 2022/06/07 17:07:42 resources.go:80: config initialized success
INFO: 2022/06/07 17:08:04 resources.go:80: config initialized success
INFO: 2022/06/07 17:12:34 resources.go:80: config initialized success
INFO: 2022/06/07 17:13:23 resources.go:80: config initialized success
INFO: 2022/06/07 17:26:28 resources.go:80: config initialized success
INFO: 2022/06/07 17:28:40 resources.go:80: config initialized success
INFO: 2022/06/07 17:29:48 resources.go:80: config initialized success
INFO: 2022/06/07 17:40:18 resources.go:80: config initialized success
INFO: 2022/06/07 17:42:28 resources.go:80: config initialized success
INFO: 2022/06/07 17:43:23 resources.go:80: config initialized success
INFO: 2022/06/07 17:45:19 resources.go:80: config initialized success
INFO: 2022/06/07 17:45:53 resources.go:80: config initialized success
INFO: 2022/06/07 17:47:18 resources.go:80: config initialized success
INFO: 2022/06/07 17:49:58 resources.go:80: config initialized success
INFO: 2022/06/07 17:52:19 resources.go:80: config initialized success
INFO: 2022/06/07 18:02:57 resources.go:80: config initialized success
INFO: 2022/06/07 18:06:13 resources.go:80: config initialized success
INFO: 2022/06/07 18:15:55 resources.go:80: config initialized success
INFO: 2022/06/07 18:16:13 resources.go:80: config initialized success
INFO: 2022/06/07 18:26:27 resources.go:80: config initialized success
INFO: 2022/06/07 18:28:09 resources.go:80: config initialized success
INFO: 2022/06/08 08:58:30 resources.go:80: config initialized success
INFO: 2022/06/08 09:03:55 resources.go:80: config initialized success
INFO: 2022/06/08 09:04:22 resources.go:80: config initialized success
INFO: 2022/06/08 09:32:39 resources.go:80: config initialized success
INFO: 2022/06/08 09:41:37 resources.go:80: config initialized success
INFO: 2022/06/08 09:43:19 resources.go:80: config initialized success
INFO: 2022/06/08 09:44:36 resources.go:80: config initialized success
INFO: 2022/06/08 09:49:07 resources.go:80: config initialized success
INFO: 2022/06/08 09:54:22 resources.go:80: config initialized success
INFO: 2022/06/08 10:08:57 resources.go:80: config initialized success
INFO: 2022/06/08 10:45:54 resources.go:80: config initialized success
INFO: 2022/06/08 10:47:58 resources.go:80: config initialized success
INFO: 2022/06/08 10:49:50 resources.go:80: config initialized success
INFO: 2022/06/08 10:51:10 resources.go:80: config initialized success
INFO: 2022/06/08 10:54:53 resources.go:80: config initialized success
INFO: 2022/06/08 10:56:43 resources.go:80: config initialized success
INFO: 2022/06/08 11:04:47 resources.go:80: config initialized success
INFO: 2022/06/08 11:25:23 resources.go:80: config initialized success
INFO: 2022/06/08 11:25:34 resources.go:80: config initialized success
INFO: 2022/06/08 11:32:07 resources.go:80: config initialized success
INFO: 2022/06/08 11:34:12 resources.go:80: config initialized success
INFO: 2022/06/08 11:38:40 resources.go:80: config initialized success
INFO: 2022/06/08 11:40:02 resources.go:80: config initialized success
INFO: 2022/06/08 11:41:18 resources.go:80: config initialized success
INFO: 2022/06/08 11:42:12 resources.go:80: config initialized success
INFO: 2022/06/08 11:43:37 resources.go:80: config initialized success
INFO: 2022/06/08 11:46:36 resources.go:80: config initialized success
INFO: 2022/06/08 11:47:55 resources.go:80: config initialized success
INFO: 2022/06/08 11:48:33 resources.go:80: config initialized success
INFO: 2022/06/08 11:49:45 resources.go:80: config initialized success
INFO: 2022/06/08 11:51:10 resources.go:80: config initialized success
INFO: 2022/06/08 11:52:23 resources.go:80: config initialized success
INFO: 2022/06/08 12:07:02 resources.go:80: config initialized success
INFO: 2022/06/08 12:10:23 resources.go:80: config initialized success
INFO: 2022/06/08 12:10:39 resources.go:80: config initialized success
INFO: 2022/06/08 12:10:44 resources.go:80: config initialized success
INFO: 2022/06/08 12:11:42 resources.go:80: config initialized success
INFO: 2022/06/08 13:12:17 resources.go:80: config initialized success
INFO: 2022/06/08 13:16:50 resources.go:80: config initialized success
INFO: 2022/06/08 13:26:06 resources.go:80: config initialized success
INFO: 2022/06/08 13:30:20 resources.go:80: config initialized success
INFO: 2022/06/08 13:33:53 resources.go:80: config initialized success
INFO: 2022/06/08 13:41:10 resources.go:80: config initialized success
INFO: 2022/06/08 13:52:14 resources.go:80: config initialized success
INFO: 2022/06/08 13:52:50 resources.go:80: config initialized success
INFO: 2022/06/08 13:54:18 resources.go:80: config initialized success
INFO: 2022/06/08 14:23:35 resources.go:80: config initialized success
INFO: 2022/06/08 14:24:13 resources.go:80: config initialized success
INFO: 2022/06/08 14:25:44 resources.go:80: config initialized success
INFO: 2022/06/08 14:27:22 resources.go:80: config initialized success
INFO: 2022/06/08 14:55:31 resources.go:80: config initialized success
INFO: 2022/06/08 14:58:38 resources.go:80: config initialized success
INFO: 2022/06/08 14:59:45 resources.go:80: config initialized success
INFO: 2022/06/08 15:01:41 resources.go:80: config initialized success
INFO: 2022/06/08 15:03:34 resources.go:80: config initialized success
INFO: 2022/06/08 15:10:01 resources.go:80: config initialized success
INFO: 2022/06/08 15:18:04 resources.go:80: config initialized success
INFO: 2022/06/08 15:24:29 resources.go:80: config initialized success
INFO: 2022/06/08 15:25:01 resources.go:80: config initialized success
INFO: 2022/06/08 15:26:03 resources.go:80: config initialized success
INFO: 2022/06/08 15:29:01 resources.go:80: config initialized success
INFO: 2022/06/08 15:33:21 resources.go:80: config initialized success
INFO: 2022/06/08 15:33:57 resources.go:80: config initialized success
INFO: 2022/06/08 15:57:57 resources.go:80: config initialized success
INFO: 2022/06/08 15:58:58 resources.go:80: config initialized success
INFO: 2022/06/08 15:59:49 resources.go:80: config initialized success
INFO: 2022/06/08 16:01:59 resources.go:80: config initialized success
INFO: 2022/06/08 16:03:59 resources.go:80: config initialized success
INFO: 2022/06/08 16:05:43 resources.go:80: config initialized success
INFO: 2022/06/08 16:08:01 resources.go:80: config initialized success
INFO: 2022/06/08 16:11:47 resources.go:80: config initialized success
INFO: 2022/06/08 16:12:53 resources.go:80: config initialized success
INFO: 2022/06/08 16:13:54 resources.go:80: config initialized success
INFO: 2022/06/08 16:17:38 resources.go:80: config initialized success
INFO: 2022/06/08 16:21:44 resources.go:80: config initialized success
INFO: 2022/06/08 16:35:52 resources.go:80: config initialized success
INFO: 2022/06/08 16:38:49 resources.go:80: config initialized success
INFO: 2022/06/08 16:42:03 resources.go:80: config initialized success
INFO: 2022/06/08 16:55:20 resources.go:80: config initialized success
INFO: 2022/06/08 16:58:00 resources.go:80: config initialized success
INFO: 2022/06/08 17:01:21 resources.go:80: config initialized success
INFO: 2022/06/08 17:02:32 resources.go:80: config initialized success
INFO: 2022/06/08 18:07:22 resources.go:80: config initialized success
INFO: 2022/06/08 18:08:02 resources.go:80: config initialized success
INFO: 2022/06/09 09:06:41 resources.go:80: config initialized success
INFO: 2022/06/09 09:13:59 resources.go:80: config initialized success
INFO: 2022/06/09 10:43:49 resources.go:80: config initialized success
INFO: 2022/06/09 10:59:30 resources.go:80: config initialized success
INFO: 2022/06/09 11:06:54 resources.go:80: config initialized success
INFO: 2022/06/09 11:07:45 resources.go:80: config initialized success
INFO: 2022/06/09 11:09:09 resources.go:80: config initialized success
INFO: 2022/06/09 11:21:38 resources.go:80: config initialized success
INFO: 2022/06/09 11:28:14 resources.go:80: config initialized success
INFO: 2022/06/09 11:34:34 resources.go:80: config initialized success
INFO: 2022/06/09 11:47:01 resources.go:80: config initialized success
INFO: 2022/06/09 11:47:28 resources.go:80: config initialized success
INFO: 2022/06/09 13:19:04 resources.go:80: config initialized success
INFO: 2022/06/09 13:24:10 resources.go:80: config initialized success
INFO: 2022/06/09 13:29:08 resources.go:80: config initialized success
INFO: 2022/06/09 13:30:03 resources.go:80: config initialized success
INFO: 2022/06/09 13:38:59 resources.go:80: config initialized success
INFO: 2022/06/09 13:44:59 resources.go:80: config initialized success
INFO: 2022/06/09 14:16:38 resources.go:80: config initialized success
INFO: 2022/06/09 14:21:20 resources.go:80: config initialized success
INFO: 2022/06/09 14:26:22 resources.go:80: config initialized success
INFO: 2022/06/09 14:39:43 resources.go:80: config initialized success
INFO: 2022/06/09 14:42:57 resources.go:80: config initialized success
INFO: 2022/06/09 14:44:39 resources.go:80: config initialized success
INFO: 2022/06/09 14:48:08 resources.go:80: config initialized success
INFO: 2022/06/09 14:50:35 resources.go:80: config initialized success
INFO: 2022/06/09 15:04:49 resources.go:80: config initialized success
INFO: 2022/06/09 15:32:59 resources.go:80: config initialized success
INFO: 2022/06/09 15:42:00 resources.go:80: config initialized success
INFO: 2022/06/09 15:55:36 resources.go:80: config initialized success
INFO: 2022/06/09 16:10:23 resources.go:80: config initialized success
INFO: 2022/06/09 16:13:22 resources.go:80: config initialized success
INFO: 2022/06/09 16:28:53 resources.go:80: config initialized success
INFO: 2022/06/09 16:33:37 resources.go:80: config initialized success
INFO: 2022/06/09 16:36:37 resources.go:80: config initialized success
INFO: 2022/06/09 16:44:40 resources.go:80: config initialized success
INFO: 2022/06/09 16:47:54 resources.go:80: config initialized success
INFO: 2022/06/09 16:48:56 resources.go:80: config initialized success
INFO: 2022/06/09 17:05:18 resources.go:80: config initialized success
INFO: 2022/06/09 17:07:24 resources.go:80: config initialized success
INFO: 2022/06/09 17:09:03 resources.go:80: config initialized success
INFO: 2022/06/09 17:12:41 resources.go:80: config initialized success
INFO: 2022/06/09 17:15:54 resources.go:80: config initialized success
INFO: 2022/06/09 17:23:36 resources.go:80: config initialized success
INFO: 2022/06/09 17:27:08 resources.go:80: config initialized success
INFO: 2022/06/09 17:35:23 resources.go:80: config initialized success
INFO: 2022/06/09 17:36:35 resources.go:80: config initialized success
INFO: 2022/06/09 17:44:14 resources.go:80: config initialized success
INFO: 2022/06/09 17:48:31 resources.go:80: config initialized success
INFO: 2022/06/09 17:50:48 resources.go:80: config initialized success
INFO: 2022/06/09 17:57:42 resources.go:80: config initialized success
<<<<<<< HEAD
INFO: 2022/06/09 22:14:41 resources.go:80: config initialized success
=======
>>>>>>> 9deb2c59ba1e2cc8eb2d298b074f5bfe4ee2d77d
